{
  "dependencies": {
    "fbgraph": {
      "version": "0.3.0",
      "resolved": "https://registry.npmjs.org/fbgraph/-/fbgraph-0.3.0.tgz",
      "from": "fbgraph@0.3.0",
      "dependencies": {
        "qs": {
          "version": "1.2.2",
          "resolved": "https://registry.npmjs.org/qs/-/qs-1.2.2.tgz",
          "from": "qs@1.2.2"
        },
        "request": {
          "version": "2.40.0",
          "resolved": "https://registry.npmjs.org/request/-/request-2.40.0.tgz",
          "from": "request@2.40.0",
          "dependencies": {
            "aws-sign2": {
              "version": "0.5.0",
              "resolved": "https://registry.npmjs.org/aws-sign2/-/aws-sign2-0.5.0.tgz",
              "from": "aws-sign2@0.5.0"
            },
            "forever-agent": {
              "version": "0.5.2",
              "resolved": "https://registry.npmjs.org/forever-agent/-/forever-agent-0.5.2.tgz",
              "from": "forever-agent@0.5.2"
            },
            "form-data": {
              "version": "0.1.4",
              "resolved": "https://registry.npmjs.org/form-data/-/form-data-0.1.4.tgz",
              "from": "form-data@0.1.4",
              "dependencies": {
                "async": {
                  "version": "0.9.2",
                  "resolved": "https://registry.npmjs.org/async/-/async-0.9.2.tgz",
                  "from": "async@0.9.2"
                },
                "combined-stream": {
                  "version": "0.0.7",
                  "resolved": "https://registry.npmjs.org/combined-stream/-/combined-stream-0.0.7.tgz",
                  "from": "combined-stream@0.0.7",
                  "dependencies": {
                    "delayed-stream": {
                      "version": "0.0.5",
                      "resolved": "https://registry.npmjs.org/delayed-stream/-/delayed-stream-0.0.5.tgz",
                      "from": "delayed-stream@0.0.5"
                    }
                  }
                },
                "mime": {
                  "version": "1.2.11",
                  "resolved": "https://registry.npmjs.org/mime/-/mime-1.2.11.tgz",
                  "from": "mime@1.2.11"
                }
              }
            },
            "hawk": {
              "version": "1.1.1",
              "resolved": "https://registry.npmjs.org/hawk/-/hawk-1.1.1.tgz",
              "from": "hawk@1.1.1",
              "dependencies": {
                "boom": {
                  "version": "0.4.2",
                  "resolved": "https://registry.npmjs.org/boom/-/boom-0.4.2.tgz",
                  "from": "boom@0.4.2"
                },
                "cryptiles": {
                  "version": "0.2.2",
                  "resolved": "https://registry.npmjs.org/cryptiles/-/cryptiles-0.2.2.tgz",
                  "from": "cryptiles@0.2.2"
                },
                "hoek": {
                  "version": "0.9.1",
                  "resolved": "https://registry.npmjs.org/hoek/-/hoek-0.9.1.tgz",
                  "from": "hoek@0.9.1"
                },
                "sntp": {
                  "version": "0.2.4",
                  "resolved": "https://registry.npmjs.org/sntp/-/sntp-0.2.4.tgz",
                  "from": "sntp@0.2.4"
                }
              }
            },
            "http-signature": {
              "version": "0.10.1",
              "resolved": "https://registry.npmjs.org/http-signature/-/http-signature-0.10.1.tgz",
              "from": "http-signature@0.10.1",
              "dependencies": {
                "asn1": {
                  "version": "0.1.11",
                  "resolved": "https://registry.npmjs.org/asn1/-/asn1-0.1.11.tgz",
                  "from": "asn1@0.1.11"
                },
                "assert-plus": {
                  "version": "0.1.5",
                  "resolved": "https://registry.npmjs.org/assert-plus/-/assert-plus-0.1.5.tgz",
                  "from": "assert-plus@0.1.5"
                },
                "ctype": {
                  "version": "0.5.3",
                  "resolved": "https://registry.npmjs.org/ctype/-/ctype-0.5.3.tgz",
                  "from": "ctype@0.5.3"
                }
              }
            },
            "json-stringify-safe": {
              "version": "5.0.1",
              "resolved": "https://registry.npmjs.org/json-stringify-safe/-/json-stringify-safe-5.0.1.tgz",
              "from": "json-stringify-safe@5.0.1"
            },
            "mime-types": {
              "version": "1.0.2",
              "resolved": "https://registry.npmjs.org/mime-types/-/mime-types-1.0.2.tgz",
              "from": "mime-types@1.0.2"
            },
            "node-uuid": {
              "version": "1.4.3",
              "resolved": "https://registry.npmjs.org/node-uuid/-/node-uuid-1.4.3.tgz",
              "from": "node-uuid@1.4.3"
            },
            "oauth-sign": {
              "version": "0.3.0",
              "resolved": "https://registry.npmjs.org/oauth-sign/-/oauth-sign-0.3.0.tgz",
              "from": "oauth-sign@0.3.0"
            },
            "qs": {
              "version": "1.0.2",
              "resolved": "https://registry.npmjs.org/qs/-/qs-1.0.2.tgz",
              "from": "qs@1.0.2"
            },
            "stringstream": {
              "version": "0.0.4",
              "resolved": "https://registry.npmjs.org/stringstream/-/stringstream-0.0.4.tgz",
              "from": "stringstream@0.0.4"
            },
            "tough-cookie": {
              "version": "2.1.0",
              "resolved": "https://registry.npmjs.org/tough-cookie/-/tough-cookie-2.1.0.tgz",
              "from": "tough-cookie@2.1.0"
            },
            "tunnel-agent": {
              "version": "0.4.1",
              "resolved": "https://registry.npmjs.org/tunnel-agent/-/tunnel-agent-0.4.1.tgz",
              "from": "tunnel-agent@0.4.1"
            }
          }
        }
      }
    }
  }
}
